<mxfile host="app.diagrams.net" modified="2024-03-10T08:15:42.526Z" agent="Mozilla/5.0 (Macintosh; Intel Mac OS X 10_15_7) AppleWebKit/537.36 (KHTML, like Gecko) Chrome/122.0.0.0 Safari/537.36" version="24.0.3" etag="Uk8sfNr6zRnbpemaXJlb" type="gitlab">
  <diagram name="Page-1" id="t8pRxcXvo6tVjjuimcRF">
    <mxGraphModel>
      <root>
        <mxCell id="0" />
        <mxCell id="1" parent="0" />
      </root>
    </mxGraphModel>
  </diagram>
</mxfile>
